{"name":"Check if the user application is accessed by the users","id":"testing-different-users-on-the-reqres-application:Check if the user application is accessed by the users","testSteps":[{"number":1,"description":"Given I am on Homepage of application reqres","duration":577,"startTime":"2022-06-20T20:31:26.729+01:00[Europe/London]","result":"SUCCESS","precondition":false},{"number":2,"description":"When User send a GET Request to list endpoint users","duration":6920,"startTime":"2022-06-20T20:31:27.311+01:00[Europe/London]","result":"SUCCESS","precondition":false,"children":[{"number":3,"description":"Getting all users","duration":6817,"startTime":"2022-06-20T20:31:27.414+01:00[Europe/London]","result":"SUCCESS","precondition":false,"children":[{"number":4,"description":"GET https://reqres.in/api/users\r\r","duration":0,"startTime":"2022-06-20T20:31:34.205+01:00[Europe/London]","result":"SUCCESS","restQuery":{"method":"GET","path":"https://reqres.in/api/users\r\r","content":"\r","contentType":"null","requestHeaders":"Accept\u003d*/*\r\r","requestCookies":"\r\r","responseHeaders":"Date: Mon, 20 Jun 2022 19:31:33 GMT\nContent-Type: application/json; charset\u003dutf-8\nTransfer-Encoding: chunked\nConnection: keep-alive\nX-Powered-By: Express\nAccess-Control-Allow-Origin: *\nEtag: W/\"3e4-2RLXvr5wTg9YQ6aH95CkYoFNuO8\"\nVia: 1.1 vegur\nCache-Control: max-age\u003d14400\nCF-Cache-Status: HIT\nAge: 1865\nExpect-CT: max-age\u003d604800, report-uri\u003d\"https://report-uri.cloudflare.com/cdn-cgi/beacon/expect-ct\"\nReport-To: {\"endpoints\":[{\"url\":\"https:\\/\\/a.nel.cloudflare.com\\/report\\/v3?s\u003dV1cdHwYeNrepTgIpag6cvxA66aHoz%2FFH%2FAu5eZhzp%2FEo8SXFth7dc8BnOTHq7%2BOqO3pf7Hkqdcsmn1Xtiyt%2BWTlZ35EjbW0v3xGQiLHKdnHVoQAtSOhBTsmWHg%3D%3D\"}],\"group\":\"cf-nel\",\"max_age\":604800}\nNEL: {\"success_fraction\":0,\"report_to\":\"cf-nel\",\"max_age\":604800}\nVary: Accept-Encoding\nServer: cloudflare\nCF-RAY: 71e6ece7ca5a7193-LHR\nContent-Encoding: gzip\r","responseCookies":"\r","responseBody":"{\n    \"page\": 1,\n    \"per_page\": 6,\n    \"total\": 12,\n    \"total_pages\": 2,\n    \"data\": [\n        {\n            \"id\": 1,\n            \"email\": \"george.bluth@reqres.in\",\n            \"first_name\": \"George\",\n            \"last_name\": \"Bluth\",\n            \"avatar\": \"https://reqres.in/img/faces/1-image.jpg\"\n        },\n        {\n            \"id\": 2,\n            \"email\": \"janet.weaver@reqres.in\",\n            \"first_name\": \"Janet\",\n            \"last_name\": \"Weaver\",\n            \"avatar\": \"https://reqres.in/img/faces/2-image.jpg\"\n        },\n        {\n            \"id\": 3,\n            \"email\": \"emma.wong@reqres.in\",\n            \"first_name\": \"Emma\",\n            \"last_name\": \"Wong\",\n            \"avatar\": \"https://reqres.in/img/faces/3-image.jpg\"\n        },\n        {\n            \"id\": 4,\n            \"email\": \"eve.holt@reqres.in\",\n            \"first_name\": \"Eve\",\n            \"last_name\": \"Holt\",\n            \"avatar\": \"https://reqres.in/img/faces/4-image.jpg\"\n        },\n        {\n            \"id\": 5,\n            \"email\": \"charles.morris@reqres.in\",\n            \"first_name\": \"Charles\",\n            \"last_name\": \"Morris\",\n            \"avatar\": \"https://reqres.in/img/faces/5-image.jpg\"\n        },\n        {\n            \"id\": 6,\n            \"email\": \"tracey.ramos@reqres.in\",\n            \"first_name\": \"Tracey\",\n            \"last_name\": \"Ramos\",\n            \"avatar\": \"https://reqres.in/img/faces/6-image.jpg\"\n        }\n    ],\n    \"support\": {\n        \"url\": \"https://reqres.in/#support-heading\",\n        \"text\": \"To keep ReqRes free, contributions towards server costs are appreciated!\"\n    }\n}","statusCode":200},"precondition":false}]}]},{"number":5,"description":"Then User can get back a valid status code 200 of users","duration":99,"startTime":"2022-06-20T20:31:34.234+01:00[Europe/London]","result":"SUCCESS","precondition":false}],"userStory":{"id":"testing-different-users-on-the-reqres-application","storyName":"Testing different users on the Reqres Application","path":"Reqres.feature","type":"feature"},"featureTag":{"name":"Testing different users on the Reqres Application","type":"feature"},"title":"Check if the user application is accessed by the users","description":"","tags":[{"name":"Testing different users on the Reqres Application","type":"feature"}],"startTime":"2022-06-20T20:31:26.347+01:00[Europe/London]","duration":7989,"projectKey":"","manual":false,"result":"SUCCESS"}